Chapter 2 - Political Stability Around the World Since the End of the Cold War: Descriptive Statistics and Exploratory Data Analysis
…
Identifying the Most Stable and Most Unstable Countries in Africa

# subsetting the African countries
WGIdevRegimeTypeAf <- filter(WGIdevRegimeType, region == "Africa")

# calculating the average stability by country in Africa

politicalStabilityByCountry <- summarise(group_by(WGIdevRegimeTypeAf, country),
          mean=mean(stability, na.rm = TRUE), sd=sd(stability, na.rm = TRUE))

mostStable <- arrange(politicalStabilityByCountry, desc(mean))
mostStable

## # A tibble: 56 x 3
##    country                        mean     sd
##    <chr>                         <dbl>  <dbl>
##  1 Botswana                      1.02  0.0633
##  2 Mauritius                     0.915 0.140 
##  3 Cabo Verde                    0.865 0.181 
##  4 Seychelles                    0.812 0.204 
##  5 Namibia                       0.770 0.241 
##  6 Benin                         0.411 0.301 
##  7 "S\xe3o Tom\xe9 and Principe" 0.334 0.277 
##  8 Zambia                        0.251 0.246 
##  9 Gabon                         0.249 0.179 
## 10 Gambia, The                   0.144 0.316 
## # ... with 46 more rows

mostUnstable <- arrange(politicalStabilityByCountry, mean)
mostUnstable

## # A tibble: 56 x 3
##    country                   mean    sd
##    <chr>                    <dbl> <dbl>
##  1 Somalia                  -2.69 0.395
##  2 Sudan                    -2.25 0.281
##  3 Congo, Dem. Rep.         -2.24 0.227
##  4 Burundi                  -1.78 0.434
##  5 Nigeria                  -1.78 0.398
##  6 Central African Republic -1.75 0.378
##  7 Ethiopia                 -1.44 0.307
##  8 Chad                     -1.42 0.297
##  9 "C\xf4te d'Ivoire"       -1.34 0.691
## 10 Algeria                  -1.31 0.277
## # ... with 46 more rows
…
